dplyr
…
library(readxl)
turismo <- read_excel("/home/eli/Desktop/Neurobiologia/Platicas/IGeografia/data/6_2.xlsx", sheet = "Vista08a", range = cell_rows(12:45)) 

## New names:
## * `` -> ...1
## * `` -> ...3
## * `` -> ...4
## * `` -> ...5
## * `` -> ...6
## * ...

turismo

## # A tibble: 33 × 379
##    ...1   `1992.0` ...3   ...4   ...5  ...6  ...7  ...8  ...9  ...10 ...11 ...12
##    <chr>  <chr>    <chr>  <chr>  <chr> <chr> <chr> <chr> <chr> <chr> <chr> <chr>
##  1 Etiqu… [01] Ene [02] … [03] … [04]… [05]… [06]… [07]… [08]… [09]… [10]… [11]…
##  2 Aguas… 42804.0  43696… 48960… 6854… 6144… 5257… 6185… 5724… 4763… 5141… 5327…
##  3 Baja … 247635.0 24091… 27264… 2959… 2867… 2570… 3477… 3227… 2387… 2481… 2447…
##  4 Baja … 155973.0 16212… 15686… 1589… 1481… 1337… 1604… 1535… 1084… 1414… 1558…
##  5 Campe… 46082.0  43929… 48583… 4976… 3570… 4206… 5653… 5165… 4101… 4648… 4820…
##  6 Chiap… 105483.0 10621… 11900… 1323… 1048… 8568… 1434… 1424… 9418… 1064… 1150…
##  7 Chihu… 295675.0 28614… 32494… 3139… 3659… 3561… 3421… 3204… 2982… 2998… 3049…
##  8 Ciuda… 950481.0 10413… 10219… 9659… 1017… 1055… 1121… 1135… 9012… 1000… 9376…
##  9 Coahu… 101856.0 94757… 10337… 1203… 1141… 1063… 1289… 1304… 1050… 1061… 1013…
## 10 Colima 113121.0 11281… 11819… 1626… 1297… 1011… 1838… 2050… 9221… 8496… 1007…
## # … with 23 more rows, and 367 more variables: ...13 <chr>, Total 1992 <dbl>,
## #   1993.0 <chr>, ...16 <chr>, ...17 <chr>, ...18 <chr>, ...19 <chr>,
## #   ...20 <chr>, ...21 <chr>, ...22 <chr>, ...23 <chr>, ...24 <chr>,
## #   ...25 <chr>, ...26 <chr>, Total 1993 <dbl>, 1994.0 <chr>, ...29 <chr>,
## #   ...30 <chr>, ...31 <chr>, ...32 <chr>, ...33 <chr>, ...34 <chr>,
## #   ...35 <chr>, ...36 <chr>, ...37 <chr>, ...38 <chr>, ...39 <chr>,
## #   Total 1994 <dbl>, 1995.0 <chr>, ...42 <chr>, ...43 <chr>, ...44 <chr>, …

Remover filas que no son de interés

turismo %>% 
  filter(!row_number() == 1) # mantiene todas las filas que sean distinas a la 1a

## # A tibble: 32 × 379
##    ...1   `1992.0` ...3   ...4   ...5  ...6  ...7  ...8  ...9  ...10 ...11 ...12
##    <chr>  <chr>    <chr>  <chr>  <chr> <chr> <chr> <chr> <chr> <chr> <chr> <chr>
##  1 Aguas… 42804.0  43696… 48960… 6854… 6144… 5257… 6185… 5724… 4763… 5141… 5327…
##  2 Baja … 247635.0 24091… 27264… 2959… 2867… 2570… 3477… 3227… 2387… 2481… 2447…
##  3 Baja … 155973.0 16212… 15686… 1589… 1481… 1337… 1604… 1535… 1084… 1414… 1558…
##  4 Campe… 46082.0  43929… 48583… 4976… 3570… 4206… 5653… 5165… 4101… 4648… 4820…
##  5 Chiap… 105483.0 10621… 11900… 1323… 1048… 8568… 1434… 1424… 9418… 1064… 1150…
##  6 Chihu… 295675.0 28614… 32494… 3139… 3659… 3561… 3421… 3204… 2982… 2998… 3049…
##  7 Ciuda… 950481.0 10413… 10219… 9659… 1017… 1055… 1121… 1135… 9012… 1000… 9376…
##  8 Coahu… 101856.0 94757… 10337… 1203… 1141… 1063… 1289… 1304… 1050… 1061… 1013…
##  9 Colima 113121.0 11281… 11819… 1626… 1297… 1011… 1838… 2050… 9221… 8496… 1007…
## 10 Duran… 74461.0  71923… 80731… 7340… 7539… 8206… 9587… 8989… 7998… 8102… 7582…
## # … with 22 more rows, and 367 more variables: ...13 <chr>, Total 1992 <dbl>,
## #   1993.0 <chr>, ...16 <chr>, ...17 <chr>, ...18 <chr>, ...19 <chr>,
## #   ...20 <chr>, ...21 <chr>, ...22 <chr>, ...23 <chr>, ...24 <chr>,
## #   ...25 <chr>, ...26 <chr>, Total 1993 <dbl>, 1994.0 <chr>, ...29 <chr>,
## #   ...30 <chr>, ...31 <chr>, ...32 <chr>, ...33 <chr>, ...34 <chr>,
## #   ...35 <chr>, ...36 <chr>, ...37 <chr>, ...38 <chr>, ...39 <chr>,
## #   Total 1994 <dbl>, 1995.0 <chr>, ...42 <chr>, ...43 <chr>, ...44 <chr>, …

Remover columnas que no son de interés

turismo %>% 
  filter(!row_number() == 1) %>% # mantiene todas las filas que sean distinas a 1
  select(1, starts_with("Total")) %>% # selecciona la primera columna y todas las que inicien con Total
  select(-31) # selecciona todas, con excepción de la columna 31

## # A tibble: 32 × 30
##    ...1         `Total 1992` `Total 1993` `Total 1994` `Total 1995` `Total 1996`
##    <chr>               <dbl>        <dbl>        <dbl>        <dbl>        <dbl>
##  1 Aguascalien…       636855       610192       611116       497351      559424.
##  2 Baja Califo…      3247343      3142263      3223894      2751924     3006252.
##  3 Baja Califo…      1793106      1832446      2111779      2343772     3103874 
##  4 Campeche           557151       578721       626016       547338      686444.
##  5 Chiapas           1385880      1392963      1130988      1468009     1655195 
##  6 Chihuahua         3845781      2863214      2549505      2577752     3071778.
##  7 Ciudad de M…     12012296     10597270     10713503     15650866    15436383 
##  8 Coahuila          1323034      1246296      1206982      1358553     1579215 
##  9 Colima            1558199      1378685      1247275      1400146     1497031.
## 10 Durango            962852      1027649      1128385       950528     1038894.
## # … with 22 more rows, and 24 more variables: Total 1997 <dbl>,
## #   Total 1998 <dbl>, Total 1999 <dbl>, Total 2000 <dbl>, Total 2001 <dbl>,
## #   Total 2002 <dbl>, Total 2003 <dbl>, Total 2004 <dbl>, Total 2005 <dbl>,
## #   Total 2006 <dbl>, Total 2007 <dbl>, Total 2008 <dbl>, Total 2009 <dbl>,
## #   Total 2010 <dbl>, Total 2011 <dbl>, Total 2012 <dbl>, Total 2013 <dbl>,
## #   Total 2014 <dbl>, Total 2015 <dbl>, Total 2016 <dbl>, Total 2017 <dbl>,
## #   Total 2018 <dbl>, Total 2019 <dbl>, Total 2020 <dbl>

Renombrar columnas

turismo1 <- turismo %>% 
  filter(!row_number() == 1) %>% # mantiene todas las filas que sean distinas a 1
  select(1, starts_with("Total")) %>% # selecciona la primera columna y todas las que inicien con Total
  select(-31) %>% # selecciona todas, con excepción de la columna 31
  rename("Estado" = "...1") # renombra la columna ...1 

¿Los datos están en formato long?

turismo1

## # A tibble: 32 × 30
##    Estado       `Total 1992` `Total 1993` `Total 1994` `Total 1995` `Total 1996`
##    <chr>               <dbl>        <dbl>        <dbl>        <dbl>        <dbl>
##  1 Aguascalien…       636855       610192       611116       497351      559424.
##  2 Baja Califo…      3247343      3142263      3223894      2751924     3006252.
##  3 Baja Califo…      1793106      1832446      2111779      2343772     3103874 
##  4 Campeche           557151       578721       626016       547338      686444.
##  5 Chiapas           1385880      1392963      1130988      1468009     1655195 
##  6 Chihuahua         3845781      2863214      2549505      2577752     3071778.
##  7 Ciudad de M…     12012296     10597270     10713503     15650866    15436383 
##  8 Coahuila          1323034      1246296      1206982      1358553     1579215 
##  9 Colima            1558199      1378685      1247275      1400146     1497031.
## 10 Durango            962852      1027649      1128385       950528     1038894.
## # … with 22 more rows, and 24 more variables: Total 1997 <dbl>,
## #   Total 1998 <dbl>, Total 1999 <dbl>, Total 2000 <dbl>, Total 2001 <dbl>,
## #   Total 2002 <dbl>, Total 2003 <dbl>, Total 2004 <dbl>, Total 2005 <dbl>,
## #   Total 2006 <dbl>, Total 2007 <dbl>, Total 2008 <dbl>, Total 2009 <dbl>,
## #   Total 2010 <dbl>, Total 2011 <dbl>, Total 2012 <dbl>, Total 2013 <dbl>,
## #   Total 2014 <dbl>, Total 2015 <dbl>, Total 2016 <dbl>, Total 2017 <dbl>,
## #   Total 2018 <dbl>, Total 2019 <dbl>, Total 2020 <dbl>
…
Modificar tipo de variable

turismo %>% 
  filter(!row_number() == 1) %>% # mantiene todas las filas que sean distinas a 1
  select(1, starts_with("Total")) %>% # selecciona la primera columna y todas las que inicien con Total
  select(-31) %>% # selecciona todas, con excepción de la columna 31
  rename("Estado" = "...1") %>% # renombra la columna ...1 
  mutate(Estado = as.factor(Estado)) # cambia el tipo de variable, de chr a fct

## # A tibble: 32 × 30
##    Estado       `Total 1992` `Total 1993` `Total 1994` `Total 1995` `Total 1996`
##    <fct>               <dbl>        <dbl>        <dbl>        <dbl>        <dbl>
##  1 Aguascalien…       636855       610192       611116       497351      559424.
##  2 Baja Califo…      3247343      3142263      3223894      2751924     3006252.
##  3 Baja Califo…      1793106      1832446      2111779      2343772     3103874 
##  4 Campeche           557151       578721       626016       547338      686444.
##  5 Chiapas           1385880      1392963      1130988      1468009     1655195 
##  6 Chihuahua         3845781      2863214      2549505      2577752     3071778.
##  7 Ciudad de M…     12012296     10597270     10713503     15650866    15436383 
##  8 Coahuila          1323034      1246296      1206982      1358553     1579215 
##  9 Colima            1558199      1378685      1247275      1400146     1497031.
## 10 Durango            962852      1027649      1128385       950528     1038894.
## # … with 22 more rows, and 24 more variables: Total 1997 <dbl>,
## #   Total 1998 <dbl>, Total 1999 <dbl>, Total 2000 <dbl>, Total 2001 <dbl>,
## #   Total 2002 <dbl>, Total 2003 <dbl>, Total 2004 <dbl>, Total 2005 <dbl>,
## #   Total 2006 <dbl>, Total 2007 <dbl>, Total 2008 <dbl>, Total 2009 <dbl>,
## #   Total 2010 <dbl>, Total 2011 <dbl>, Total 2012 <dbl>, Total 2013 <dbl>,
## #   Total 2014 <dbl>, Total 2015 <dbl>, Total 2016 <dbl>, Total 2017 <dbl>,
## #   Total 2018 <dbl>, Total 2019 <dbl>, Total 2020 <dbl>

Unir columnas

turismo %>% 
  filter(!row_number() == 1) %>% # mantiene todas las filas que sean distinas a 1
  select(1, starts_with("Total")) %>% # selecciona la primera columna y todas las que inicien con Total
  select(-31) %>% # selecciona todas, con excepción de la columna 31
  rename("Estado" = "...1") %>% # renombra la columna ...1 
  mutate(Estado = as.factor(Estado)) %>%  # cambia a factor la variable indicada
  gather(2:30, key = "Turistas por noche", value = "cuartos") # unir columnas   

## # A tibble: 928 × 3
##    Estado              `Turistas por noche`  cuartos
##    <fct>               <chr>                   <dbl>
##  1 Aguascalientes      Total 1992             636855
##  2 Baja California     Total 1992            3247343
##  3 Baja California Sur Total 1992            1793106
##  4 Campeche            Total 1992             557151
##  5 Chiapas             Total 1992            1385880
##  6 Chihuahua           Total 1992            3845781
##  7 Ciudad de México    Total 1992           12012296
##  8 Coahuila            Total 1992            1323034
##  9 Colima              Total 1992            1558199
## 10 Durango             Total 1992             962852
## # … with 918 more rows

Separar columnas

t.separate <- turismo %>% 
  filter(!row_number() == 1) %>% # mantiene todas las filas que sean distinas a 1
  select(1, starts_with("Total")) %>% # selecciona la primera columna y todas las que inicien con Total
  select(-31) %>% # selecciona todas, con excepción de la columna 31
  rename("Estado" = "...1") %>% # renombra la columna ...1 
  mutate(Estado = as.factor(Estado)) %>%  # cambia a factor la variable indicada
  gather(2:30, key = "Turistas por noche", value = "cuartos") %>% # unir columnas
  separate("Turistas por noche", into = c("borrar", "año")) %>% # separa una columna en dos
  select(-borrar)
t.separate

## # A tibble: 928 × 3
##    Estado              año    cuartos
##    <fct>               <chr>    <dbl>
##  1 Aguascalientes      1992    636855
##  2 Baja California     1992   3247343
##  3 Baja California Sur 1992   1793106
##  4 Campeche            1992    557151
##  5 Chiapas             1992   1385880
##  6 Chihuahua           1992   3845781
##  7 Ciudad de México    1992  12012296
##  8 Coahuila            1992   1323034
##  9 Colima              1992   1558199
## 10 Durango             1992    962852
## # … with 918 more rows

Extender una columna en varias

t.spread <- t.separate  %>%
  spread(año, cuartos)
t.spread

## # A tibble: 32 × 30
##    Estado  `1992` `1993` `1994` `1995` `1996` `1997` `1998` `1999` `2000` `2001`
##    <fct>    <dbl>  <dbl>  <dbl>  <dbl>  <dbl>  <dbl>  <dbl>  <dbl>  <dbl>  <dbl>
##  1 Aguasc… 6.37e5 6.10e5 6.11e5 4.97e5 5.59e5 6.74e5 6.85e5 7.30e5 8.24e5 9.49e5
##  2 Baja C… 3.25e6 3.14e6 3.22e6 2.75e6 3.01e6 3.03e6 3.90e6 3.98e6 4.00e6 3.75e6
##  3 Baja C… 1.79e6 1.83e6 2.11e6 2.34e6 3.10e6 3.39e6 2.74e6 3.44e6 2.29e6 2.61e6
##  4 Campec… 5.57e5 5.79e5 6.26e5 5.47e5 6.86e5 8.00e5 1.06e6 1.08e6 1.27e6 1.56e6
##  5 Chiapas 1.39e6 1.39e6 1.13e6 1.47e6 1.66e6 1.79e6 1.75e6 2.84e6 2.89e6 2.91e6
##  6 Chihua… 3.85e6 2.86e6 2.55e6 2.58e6 3.07e6 3.03e6 3.36e6 3.71e6 4.38e6 4.57e6
##  7 Ciudad… 1.20e7 1.06e7 1.07e7 1.57e7 1.54e7 1.54e7 1.68e7 1.68e7 1.66e7 2.05e7
##  8 Coahui… 1.32e6 1.25e6 1.21e6 1.36e6 1.58e6 1.79e6 2.31e6 1.82e6 0      0     
##  9 Colima  1.56e6 1.38e6 1.25e6 1.40e6 1.50e6 1.47e6 2.10e6 2.34e6 2.59e6 2.55e6
## 10 Durango 9.63e5 1.03e6 1.13e6 9.51e5 1.04e6 9.77e5 7.66e5 6.30e5 6.00e5 5.99e5
## # … with 22 more rows, and 19 more variables: 2002 <dbl>, 2003 <dbl>,
## #   2004 <dbl>, 2005 <dbl>, 2006 <dbl>, 2007 <dbl>, 2008 <dbl>, 2009 <dbl>,
## #   2010 <dbl>, 2011 <dbl>, 2012 <dbl>, 2013 <dbl>, 2014 <dbl>, 2015 <dbl>,
## #   2016 <dbl>, 2017 <dbl>, 2018 <dbl>, 2019 <dbl>, 2020 <dbl>

Operaciones estadísticas básicas

t.separate %>% 
  group_by(Estado) %>%
  summarise(mean = mean(cuartos), sd = sd(cuartos))

## # A tibble: 32 × 3
##    Estado                   mean       sd
##    <fct>                   <dbl>    <dbl>
##  1 Aguascalientes        974558.  381131.
##  2 Baja California      3916207.  636567.
##  3 Baja California Sur  5800604. 3535247.
##  4 Campeche             1506841.  600297.
##  5 Chiapas              3334837. 1276765.
##  6 Chihuahua            4484649. 1124804.
##  7 Ciudad de México    18605433. 4164741.
##  8 Coahuila             1680407.  948211.
##  9 Colima               2298312.  545768.
## 10 Durango               832356.  218777.
## # … with 22 more rows

Crear nuevas columnas

t.spread %>%  
  mutate(Cuartos.90s = rowSums(.[2:9])) %>% 
  select(1,31)

## # A tibble: 32 × 2
##    Estado              Cuartos.90s
##    <fct>                     <dbl>
##  1 Aguascalientes         5003645.
##  2 Baja California       26276505.
##  3 Baja California Sur   20762849.
##  4 Campeche               5926832.
##  5 Chiapas               13410382 
##  6 Chihuahua             25006782.
##  7 Ciudad de México     113492030 
##  8 Coahuila              12626277 
##  9 Colima                13002084.
## 10 Durango                7481749.
## # … with 22 more rows

Reorganizar los datos - menor a mayor calificacion

t.separate %>%
  arrange(desc(año))

## # A tibble: 928 × 3
##    Estado              año    cuartos
##    <fct>               <chr>    <dbl>
##  1 Aguascalientes      2020   921924.
##  2 Baja California     2020  2904555.
##  3 Baja California Sur 2020  7257179.
##  4 Campeche            2020  1302809.
##  5 Chiapas             2020  2343094.
##  6 Chihuahua           2020  3393146.
##  7 Ciudad de México    2020  8465687 
##  8 Coahuila            2020  1963340.
##  9 Colima              2020  1559210.
## 10 Durango             2020   642779.
## # … with 918 more rows

Filtrar valores

t.separate %>% 
  filter(año <= 2000)

## # A tibble: 288 × 3
##    Estado              año    cuartos
##    <fct>               <chr>    <dbl>
##  1 Aguascalientes      1992    636855
##  2 Baja California     1992   3247343
##  3 Baja California Sur 1992   1793106
##  4 Campeche            1992    557151
##  5 Chiapas             1992   1385880
##  6 Chihuahua           1992   3845781
##  7 Ciudad de México    1992  12012296
##  8 Coahuila            1992   1323034
##  9 Colima              1992   1558199
## 10 Durango             1992    962852
## # … with 278 more rows
…
